EESchema Schematic File Version 4
EELAYER 30 0
EELAYER END
$Descr A4 11693 8268
encoding utf-8
Sheet 1 1
Title ""
Date ""
Rev ""
Comp ""
Comment1 ""
Comment2 ""
Comment3 ""
Comment4 ""
$EndDescr
$Comp
L Device:R R1
U 1 1 60BA33C3
P 3500 3300
F 0 "R1" V 3293 3300 50  0000 C CNN
F 1 "6850" V 3384 3300 50  0000 C CNN
F 2 "Resistor_THT:R_Axial_DIN0204_L3.6mm_D1.6mm_P1.90mm_Vertical" V 3430 3300 50  0001 C CNN
F 3 "~" H 3500 3300 50  0001 C CNN
	1    3500 3300
	0    1    1    0   
$EndComp
$Comp
L Device:R R2
U 1 1 60BA44E0
P 4650 3300
F 0 "R2" V 4443 3300 50  0000 C CNN
F 1 "3150" V 4534 3300 50  0000 C CNN
F 2 "Resistor_THT:R_Axial_DIN0204_L3.6mm_D1.6mm_P1.90mm_Vertical" V 4580 3300 50  0001 C CNN
F 3 "~" H 4650 3300 50  0001 C CNN
	1    4650 3300
	0    1    1    0   
$EndComp
$Comp
L Device:R R3
U 1 1 60BA4756
P 5100 3550
F 0 "R3" H 5170 3596 50  0000 L CNN
F 1 "13900" H 5170 3505 50  0000 L CNN
F 2 "Resistor_THT:R_Axial_DIN0204_L3.6mm_D1.6mm_P1.90mm_Vertical" V 5030 3550 50  0001 C CNN
F 3 "~" H 5100 3550 50  0001 C CNN
	1    5100 3550
	1    0    0    -1  
$EndComp
$Comp
L Device:R R4
U 1 1 60BA4B98
P 5100 4050
F 0 "R4" H 5170 4096 50  0000 L CNN
F 1 "9100" H 5170 4005 50  0000 L CNN
F 2 "Resistor_THT:R_Axial_DIN0204_L3.6mm_D1.6mm_P1.90mm_Vertical" V 5030 4050 50  0001 C CNN
F 3 "~" H 5100 4050 50  0001 C CNN
	1    5100 4050
	1    0    0    -1  
$EndComp
$Comp
L Device:D D1
U 1 1 60BA5CA5
P 3800 3600
F 0 "D1" V 3754 3680 50  0000 L CNN
F 1 "D" V 3845 3680 50  0000 L CNN
F 2 "Diode_THT:D_A-405_P2.54mm_Vertical_AnodeUp" H 3800 3600 50  0001 C CNN
F 3 "~" H 3800 3600 50  0001 C CNN
	1    3800 3600
	0    1    1    0   
$EndComp
$Comp
L Transistor_BJT:2N3904 Q1
U 1 1 60BA8847
P 4200 3950
F 0 "Q1" H 4390 3996 50  0000 L CNN
F 1 "2N2222" H 4390 3905 50  0000 L CNN
F 2 "Package_TO_SOT_THT:TO-92_Inline" H 4400 3875 50  0001 L CIN
F 3 "https://www.onsemi.com/pub/Collateral/2N3903-D.PDF" H 4200 3950 50  0001 L CNN
	1    4200 3950
	1    0    0    -1  
$EndComp
Wire Wire Line
	3650 3300 3800 3300
Wire Wire Line
	4800 3300 5100 3300
Wire Wire Line
	5100 3700 5100 3800
Wire Wire Line
	3800 3450 3800 3300
Connection ~ 3800 3300
Wire Wire Line
	3800 3300 4300 3300
Wire Wire Line
	3800 3750 3800 3950
Wire Wire Line
	3800 3950 4000 3950
Wire Wire Line
	4300 3750 4300 3300
Connection ~ 4300 3300
Wire Wire Line
	4300 3300 4450 3300
$Comp
L power:PWR_FLAG #FLG01
U 1 1 60BB2104
P 2800 3300
F 0 "#FLG01" H 2800 3375 50  0001 C CNN
F 1 "PWR_FLAG" H 2800 3473 50  0000 C CNN
F 2 "" H 2800 3300 50  0001 C CNN
F 3 "~" H 2800 3300 50  0001 C CNN
	1    2800 3300
	1    0    0    -1  
$EndComp
$Comp
L power:GND #PWR01
U 1 1 60BB2CCE
P 3100 3500
F 0 "#PWR01" H 3100 3250 50  0001 C CNN
F 1 "GND" H 3105 3327 50  0000 C CNN
F 2 "" H 3100 3500 50  0001 C CNN
F 3 "" H 3100 3500 50  0001 C CNN
	1    3100 3500
	1    0    0    -1  
$EndComp
Wire Wire Line
	2650 3300 2800 3300
$Comp
L power:GND #PWR03
U 1 1 60BB5228
P 5100 4500
F 0 "#PWR03" H 5100 4250 50  0001 C CNN
F 1 "GND" H 5105 4327 50  0000 C CNN
F 2 "" H 5100 4500 50  0001 C CNN
F 3 "" H 5100 4500 50  0001 C CNN
	1    5100 4500
	1    0    0    -1  
$EndComp
$Comp
L power:GND #PWR02
U 1 1 60BB5493
P 4300 4500
F 0 "#PWR02" H 4300 4250 50  0001 C CNN
F 1 "GND" H 4305 4327 50  0000 C CNN
F 2 "" H 4300 4500 50  0001 C CNN
F 3 "" H 4300 4500 50  0001 C CNN
	1    4300 4500
	1    0    0    -1  
$EndComp
Wire Wire Line
	5100 4200 5100 4500
Wire Wire Line
	4300 4150 4300 4500
Wire Wire Line
	3350 3300 2800 3300
Connection ~ 2800 3300
Text GLabel 4300 2950 0    50   Output ~ 0
9.5V_Widget
Wire Wire Line
	4450 3300 4450 2950
Wire Wire Line
	4450 2950 4300 2950
Connection ~ 4450 3300
Wire Wire Line
	4450 3300 4500 3300
Text GLabel 5650 3300 2    50   Output ~ 0
8.3V_hat
Text GLabel 5450 3800 2    50   Output ~ 0
3.3V
Wire Wire Line
	5450 3800 5100 3800
Connection ~ 5100 3800
Wire Wire Line
	5100 3800 5100 3900
$Comp
L Device:D_Schottky D2
U 1 1 60BC98E5
P 5300 3300
F 0 "D2" H 5300 3083 50  0000 C CNN
F 1 "D_Schottky" H 5300 3174 50  0000 C CNN
F 2 "Diode_THT:D_DO-15_P2.54mm_Vertical_AnodeUp" H 5300 3300 50  0001 C CNN
F 3 "~" H 5300 3300 50  0001 C CNN
	1    5300 3300
	-1   0    0    1   
$EndComp
Wire Wire Line
	5100 3300 5100 3400
Wire Wire Line
	5150 3300 5100 3300
Connection ~ 5100 3300
Wire Wire Line
	5450 3300 5650 3300
Wire Wire Line
	2650 3500 2700 3500
$Comp
L power:PWR_FLAG #FLG0101
U 1 1 60BFE7DF
P 2800 3550
F 0 "#FLG0101" H 2800 3625 50  0001 C CNN
F 1 "PWR_FLAG" H 2800 3723 50  0000 C CNN
F 2 "" H 2800 3550 50  0001 C CNN
F 3 "~" H 2800 3550 50  0001 C CNN
	1    2800 3550
	-1   0    0    1   
$EndComp
Wire Wire Line
	2800 3550 2800 3500
Connection ~ 2800 3500
Wire Wire Line
	2800 3500 3100 3500
$Comp
L Connector:Barrel_Jack_Switch J1
U 1 1 60BAE5BD
P 2350 3400
F 0 "J1" H 2407 3717 50  0000 C CNN
F 1 "Barrel_Jack_Switch" H 2407 3626 50  0000 C CNN
F 2 "Connector_BarrelJack:BarrelJack_CUI_PJ-063AH_Horizontal" H 2400 3360 50  0001 C CNN
F 3 "~" H 2400 3360 50  0001 C CNN
	1    2350 3400
	1    0    0    -1  
$EndComp
Wire Wire Line
	2650 3400 2650 3500
Wire Wire Line
	2650 3500 2700 3500
Connection ~ 2650 3500
Connection ~ 2700 3500
Wire Wire Line
	2700 3500 2800 3500
Text Notes 7500 6850 0    129  ~ 0
Power Regulator subsystem
Text Notes 7600 7500 0    50   ~ 0
author : Mohammed-Bilaal Sheik Hoosen
Text Notes 8850 7650 0    50   ~ 0
04 june 2021\n
Text Notes 10800 7650 0    50   ~ 0
01
$EndSCHEMATC
