EESchema Schematic File Version 4
EELAYER 30 0
EELAYER END
$Descr A4 11693 8268
encoding utf-8
Sheet 1 1
Title ""
Date ""
Rev ""
Comp ""
Comment1 ""
Comment2 ""
Comment3 ""
Comment4 ""
$EndDescr
$Comp
L Device:R R8
U 1 1 60BA3748
P 4600 2550
F 0 "R8" H 4670 2596 50  0000 L CNN
F 1 "1k" H 4670 2505 50  0000 L CNN
F 2 "Resistor_THT:R_Axial_DIN0204_L3.6mm_D1.6mm_P1.90mm_Vertical" V 4530 2550 50  0001 C CNN
F 3 "~" H 4600 2550 50  0001 C CNN
	1    4600 2550
	1    0    0    -1  
$EndComp
$Comp
L Device:R R2
U 1 1 60BA3F43
P 4600 3000
F 0 "R2" H 4670 3046 50  0000 L CNN
F 1 "16.2k" H 4670 2955 50  0000 L CNN
F 2 "Resistor_THT:R_Axial_DIN0204_L3.6mm_D1.6mm_P1.90mm_Vertical" V 4530 3000 50  0001 C CNN
F 3 "~" H 4600 3000 50  0001 C CNN
	1    4600 3000
	1    0    0    -1  
$EndComp
$Comp
L Device:R R1
U 1 1 60BA44F5
P 2750 2100
F 0 "R1" V 2543 2100 50  0000 C CNN
F 1 "33k" V 2634 2100 50  0000 C CNN
F 2 "Resistor_THT:R_Axial_DIN0204_L3.6mm_D1.6mm_P1.90mm_Vertical" V 2680 2100 50  0001 C CNN
F 3 "~" H 2750 2100 50  0001 C CNN
	1    2750 2100
	0    1    1    0   
$EndComp
$Comp
L Device:R R3
U 1 1 60BA4761
P 3650 3550
F 0 "R3" H 3720 3596 50  0000 L CNN
F 1 "3.2k" H 3720 3505 50  0000 L CNN
F 2 "Resistor_THT:R_Axial_DIN0204_L3.6mm_D1.6mm_P1.90mm_Vertical" V 3580 3550 50  0001 C CNN
F 3 "~" H 3650 3550 50  0001 C CNN
	1    3650 3550
	1    0    0    -1  
$EndComp
$Comp
L Device:R R4
U 1 1 60BA4A2B
P 3650 4300
F 0 "R4" H 3720 4346 50  0000 L CNN
F 1 "6250" H 3720 4255 50  0000 L CNN
F 2 "Resistor_THT:R_Axial_DIN0204_L3.6mm_D1.6mm_P1.90mm_Vertical" V 3580 4300 50  0001 C CNN
F 3 "~" H 3650 4300 50  0001 C CNN
	1    3650 4300
	1    0    0    -1  
$EndComp
$Comp
L Device:Thermistor_NTC TH1
U 1 1 60BA4E93
P 3650 4800
F 0 "TH1" H 3748 4846 50  0000 L CNN
F 1 "Thermistor_NTC" H 3748 4755 50  0000 L CNN
F 2 "Resistor_THT:R_Axial_DIN0204_L3.6mm_D1.6mm_P1.90mm_Vertical" H 3650 4850 50  0001 C CNN
F 3 "~" H 3650 4850 50  0001 C CNN
	1    3650 4800
	1    0    0    -1  
$EndComp
$Comp
L Device:R R7
U 1 1 60BA59FE
P 4600 4800
F 0 "R7" H 4670 4846 50  0000 L CNN
F 1 "107k" H 4670 4755 50  0000 L CNN
F 2 "Resistor_THT:R_Axial_DIN0204_L3.6mm_D1.6mm_P1.90mm_Vertical" V 4530 4800 50  0001 C CNN
F 3 "~" H 4600 4800 50  0001 C CNN
	1    4600 4800
	1    0    0    -1  
$EndComp
$Comp
L pspice:OPAMP U1
U 1 1 60BA7528
P 5300 4000
F 0 "U1" H 5644 4046 50  0000 L CNN
F 1 "OPAMP" H 5644 3955 50  0000 L CNN
F 2 "Package_TO_SOT_THT:Fairchild_TO-220F-6L" H 5300 4000 50  0001 C CNN
F 3 "~" H 5300 4000 50  0001 C CNN
	1    5300 4000
	1    0    0    -1  
$EndComp
$Comp
L pspice:OPAMP U2
U 1 1 60BA9418
P 6300 4100
F 0 "U2" H 6644 4146 50  0000 L CNN
F 1 "OPAMP" H 6644 4055 50  0000 L CNN
F 2 "Package_TO_SOT_THT:Fairchild_TO-220F-6L" H 6300 4100 50  0001 C CNN
F 3 "~" H 6300 4100 50  0001 C CNN
	1    6300 4100
	1    0    0    -1  
$EndComp
Wire Wire Line
	2900 2100 3100 2100
$Comp
L Device:D_Zener D1
U 1 1 60BAC57B
P 3100 2250
F 0 "D1" V 3054 2330 50  0000 L CNN
F 1 "D_Zener" V 3145 2330 50  0000 L CNN
F 2 "Diode_THT:D_5KPW_P7.62mm_Vertical_AnodeUp" H 3100 2250 50  0001 C CNN
F 3 "~" H 3100 2250 50  0001 C CNN
	1    3100 2250
	0    1    1    0   
$EndComp
Wire Wire Line
	3100 2100 4000 2100
Wire Wire Line
	4000 2100 4000 2250
Wire Wire Line
	4000 2250 4600 2250
Wire Wire Line
	4600 2250 4600 2400
Connection ~ 3100 2100
Wire Wire Line
	4600 2700 4600 2850
Wire Wire Line
	4000 2250 3650 2250
Wire Wire Line
	3650 2250 3650 3400
Connection ~ 4000 2250
Wire Wire Line
	3650 4650 3650 4450
Wire Wire Line
	4600 3150 4600 3900
Wire Wire Line
	3650 4950 3650 5100
Wire Wire Line
	3650 5100 4100 5100
Wire Wire Line
	4600 5100 4600 4950
Wire Wire Line
	5600 4000 6000 4000
Wire Wire Line
	6900 4100 6600 4100
$Comp
L power:GND #PWR0102
U 1 1 60BB4549
P 6200 3800
F 0 "#PWR0102" H 6200 3550 50  0001 C CNN
F 1 "GND" H 6205 3627 50  0000 C CNN
F 2 "" H 6200 3800 50  0001 C CNN
F 3 "" H 6200 3800 50  0001 C CNN
	1    6200 3800
	-1   0    0    1   
$EndComp
$Comp
L power:GND #PWR0103
U 1 1 60BB487C
P 5200 3700
F 0 "#PWR0103" H 5200 3450 50  0001 C CNN
F 1 "GND" H 5205 3527 50  0000 C CNN
F 2 "" H 5200 3700 50  0001 C CNN
F 3 "" H 5200 3700 50  0001 C CNN
	1    5200 3700
	-1   0    0    1   
$EndComp
Wire Wire Line
	5000 3900 4600 3900
Connection ~ 4600 3900
Wire Wire Line
	4600 3900 4600 4650
Wire Wire Line
	5000 4100 3650 4100
Wire Wire Line
	3650 3700 3650 4100
Connection ~ 3650 4100
Wire Wire Line
	3650 4100 3650 4150
$Comp
L power:GND #PWR0104
U 1 1 60BB58A2
P 4100 5100
F 0 "#PWR0104" H 4100 4850 50  0001 C CNN
F 1 "GND" H 4105 4927 50  0000 C CNN
F 2 "" H 4100 5100 50  0001 C CNN
F 3 "" H 4100 5100 50  0001 C CNN
	1    4100 5100
	1    0    0    -1  
$EndComp
Connection ~ 4100 5100
Wire Wire Line
	4100 5100 4600 5100
$Comp
L power:GND #PWR0105
U 1 1 60BB60DF
P 3100 2400
F 0 "#PWR0105" H 3100 2150 50  0001 C CNN
F 1 "GND" H 3105 2227 50  0000 C CNN
F 2 "" H 3100 2400 50  0001 C CNN
F 3 "" H 3100 2400 50  0001 C CNN
	1    3100 2400
	1    0    0    -1  
$EndComp
Text GLabel 6900 4100 2    50   Input ~ 0
GPIO
Text GLabel 2600 2100 0    50   Input ~ 0
Vsupply
Text GLabel 5200 4300 3    50   Input ~ 0
3.3V
Text GLabel 6200 4400 3    50   Input ~ 0
3.3V
Text Notes 7450 7550 0    50   ~ 0
Temperature Sensor\n\n
Text Notes 7400 7050 0    50   ~ 0
Matthew Williams
Wire Wire Line
	6900 5350 6900 5400
Connection ~ 6900 5350
Wire Wire Line
	6900 5350 6000 5350
Wire Wire Line
	6900 5700 6900 5800
$Comp
L power:GND #PWR0101
U 1 1 60BB42F1
P 6900 5800
F 0 "#PWR0101" H 6900 5550 50  0001 C CNN
F 1 "GND" H 6905 5627 50  0000 C CNN
F 2 "" H 6900 5800 50  0001 C CNN
F 3 "" H 6900 5800 50  0001 C CNN
	1    6900 5800
	1    0    0    -1  
$EndComp
Wire Wire Line
	6900 5200 6900 5350
$Comp
L Device:R R11
U 1 1 60BAA195
P 6900 5550
F 0 "R11" H 6970 5596 50  0000 L CNN
F 1 "100k" H 6970 5505 50  0000 L CNN
F 2 "Resistor_THT:R_Axial_DIN0204_L3.6mm_D1.6mm_P1.90mm_Vertical" V 6830 5550 50  0001 C CNN
F 3 "~" H 6900 5550 50  0001 C CNN
	1    6900 5550
	1    0    0    -1  
$EndComp
$Comp
L Device:R R10
U 1 1 60BA5BF9
P 6900 5050
F 0 "R10" H 6970 5096 50  0000 L CNN
F 1 "500" H 6970 5005 50  0000 L CNN
F 2 "Resistor_THT:R_Axial_DIN0204_L3.6mm_D1.6mm_P1.90mm_Vertical" V 6830 5050 50  0001 C CNN
F 3 "~" H 6900 5050 50  0001 C CNN
	1    6900 5050
	1    0    0    -1  
$EndComp
$Comp
L Device:R R9
U 1 1 60C4108E
P 6900 4600
F 0 "R9" H 6970 4646 50  0000 L CNN
F 1 "51.1k" H 6970 4555 50  0000 L CNN
F 2 "Resistor_THT:R_Axial_DIN0204_L3.6mm_D1.6mm_P1.90mm_Vertical" V 6830 4600 50  0001 C CNN
F 3 "~" H 6900 4600 50  0001 C CNN
	1    6900 4600
	1    0    0    -1  
$EndComp
Wire Wire Line
	6000 4200 6000 5350
Wire Wire Line
	6900 4450 6900 4100
Wire Wire Line
	6900 4900 6900 4750
$EndSCHEMATC
