Version 4
SHEET 1 1408 680
WIRE 688 -336 208 -336
WIRE 1168 -336 688 -336
WIRE 1328 -336 1168 -336
WIRE 208 -288 208 -336
WIRE 688 -288 688 -336
WIRE 1168 -288 1168 -336
WIRE 208 -144 208 -208
WIRE 688 -144 688 -208
WIRE 1168 -144 1168 -208
WIRE 1328 -112 1328 -336
WIRE 208 0 208 -80
WIRE 688 0 688 -80
WIRE 1168 0 1168 -80
WIRE -48 48 -112 48
WIRE 144 48 32 48
WIRE 432 48 368 48
WIRE 624 48 512 48
WIRE 912 48 848 48
WIRE 1104 48 992 48
WIRE 208 240 208 96
WIRE 688 240 688 96
WIRE 688 240 208 240
WIRE 1168 240 1168 96
WIRE 1168 240 688 240
WIRE 1328 240 1328 -32
WIRE 1328 240 1168 240
WIRE 688 288 688 240
FLAG 688 288 0
FLAG -192 48 0
FLAG 288 48 0
FLAG 768 48 0
SYMBOL res 48 32 R90
WINDOW 0 0 56 VBottom 2
WINDOW 3 32 56 VTop 2
SYMATTR InstName R1
SYMATTR Value 3000
SYMBOL npn 144 0 R0
SYMATTR InstName Q1
SYMBOL res 192 -304 R0
SYMATTR InstName R3
SYMATTR Value 330
SYMBOL res 528 32 R90
WINDOW 0 0 56 VBottom 2
WINDOW 3 32 56 VTop 2
SYMATTR InstName R4
SYMATTR Value 3000
SYMBOL npn 624 0 R0
SYMATTR InstName Q2
SYMBOL res 672 -304 R0
SYMATTR InstName R6
SYMATTR Value 330
SYMBOL res 1008 32 R90
WINDOW 0 0 56 VBottom 2
WINDOW 3 32 56 VTop 2
SYMATTR InstName R7
SYMATTR Value 3000
SYMBOL npn 1104 0 R0
SYMATTR InstName Q3
SYMBOL res 1152 -304 R0
SYMATTR InstName R9
SYMATTR Value 330
SYMBOL voltage 1328 -128 R0
WINDOW 123 0 0 Left 0
WINDOW 39 0 0 Left 0
SYMATTR InstName V1
SYMATTR Value 3.3V
SYMBOL LED 192 -144 R0
SYMATTR InstName D1
SYMBOL LED 672 -144 R0
SYMATTR InstName D2
SYMBOL LED 1152 -144 R0
SYMATTR InstName D3
SYMBOL voltage -96 48 R90
WINDOW 0 -32 56 VBottom 2
WINDOW 3 32 56 VTop 2
WINDOW 123 0 0 Left 0
WINDOW 39 0 0 Left 0
SYMATTR InstName V2
SYMATTR Value 3.3
SYMBOL voltage 384 48 R90
WINDOW 0 -32 56 VBottom 2
WINDOW 3 32 56 VTop 2
WINDOW 123 0 0 Left 0
WINDOW 39 0 0 Left 0
SYMATTR InstName V3
SYMATTR Value 3.3
SYMBOL voltage 864 48 R90
WINDOW 0 -32 56 VBottom 2
WINDOW 3 32 56 VTop 2
WINDOW 123 0 0 Left 0
WINDOW 39 0 0 Left 0
SYMATTR InstName V4
SYMATTR Value 3.3
TEXT -232 312 Left 2 !.tran 0 10 0 0.1
